Project 03
…
After starting a new session, run the following code chunk to load the libraries and data that we will be working with today.

Load the Data

There are three datasets that you will use in this project. They are similar to the datasets we had with the French data: a spatial object (county), a dataset of demographic data, and a dataset of daily Coronavirus records at the county level.

county <- read_sf(file.path("data", "us_counties.geojson"))
covid <- read_csv(file.path("data", "us_county_covid.csv"))
demog <- read_csv(file.path("data", "us_county_metadata.csv"))

The COVID-19 dataset has fewer columns than the one from France. It has only cumulative case counts and reported deaths. Note that these are only the counties with complete data from 01 April 2020.

covid

## # A tibble: 441,572 x 6
##    date       county   state fips  cases deaths
##    <date>     <chr>    <chr> <chr> <dbl>  <dbl>
##  1 2020-04-01 Autauga  AL    01001    10      0
##  2 2020-04-01 Baldwin  AL    01003    23      1
##  3 2020-04-01 Bibb     AL    01007     3      0
##  4 2020-04-01 Blount   AL    01009     5      0
##  5 2020-04-01 Bullock  AL    01011     3      0
##  6 2020-04-01 Butler   AL    01013     1      0
##  7 2020-04-01 Calhoun  AL    01015    11      0
##  8 2020-04-01 Chambers AL    01017    45      4
##  9 2020-04-01 Cherokee AL    01019     2      0
## 10 2020-04-01 Chilton  AL    01021    13      0
## # ... with 441,562 more rows

The demographic data gives several points of information about each county. Unless otherwise noted, the data comes from 2019.

demog

## # A tibble: 3,220 x 13
##    fips  state population pop_change_2018 unemployment_ra~ median_hh_income
##    <chr> <chr>      <dbl>           <dbl>            <dbl>            <dbl>
##  1 01001 AL         55601             158              3.6            59338
##  2 01003 AL        218022            5403              3.6            57588
##  3 01005 AL         24881            -277              5.2            34382
##  4 01007 AL         22400            -155              4              46064
##  5 01009 AL         57840              13              3.5            50412
##  6 01011 AL         10138             -38              4.7            29267
##  7 01013 AL         19680            -218              4.8            37365
##  8 01015 AL        114277            -387              4.7            45400
##  9 01017 AL         33615            -143              3.9            39917
## 10 01019 AL         26032             217              3.6            42132
## # ... with 3,210 more rows, and 7 more variables: pct_below_povert <dbl>,
## #   feb_temp_avg <dbl>, aug_temp_avg <dbl>, prc_bachelors <dbl>,
## #   physicians_per_pop <dbl>, per_dem_2016 <dbl>, per_gop_2016 <dbl>
…
